…
infer <- inference(res_learn$gmgm, data_infer)
print(infer)
```
```r
#> # A tibble: 300 x 7
#>      AGE   FAT  GENDER GLYCO HEIGHT WAIST WEIGHT
#>    <dbl> <dbl>   <dbl> <dbl>  <dbl> <dbl>  <dbl>
#>  1  31.7  31.3 0        4.9    173. 102.    88.4
#>  2  55    40.9 0.930    6.5    157. 102.    75.8
#>  3  44    31.8 0.145    5.8    166. 101.    80.2
#>  4  32.4  27.4 0        5.3    164.  90.9   79.6
#>  5  41.   39.1 1        4.6    169.  90.7   74.4
#>  6  52.   41.1 1        5.6    159.  87.4   72.2
#>  7  40.3  48.3 1        5.93   167. 119.   109. 
#>  8  48    42.1 1        6.08   172. 111.    96.5
#>  9  40    26.  1        5.2    165.  84.4   61.4
#> 10  31.   36.9 0.00688  5.3    174. 130.   128. 
#> # ... with 290 more rows
```
