…
data_test_na <- data_test
data_test_na$GENDER[sample.int(300, 100)] <- NA
data_test_na$AGE[sample.int(300, 100)] <- NA
data_test_na$HEIGHT[sample.int(300, 100)] <- NA
data_test_na$WEIGHT[sample.int(300, 100)] <- NA
data_test_na$FAT[sample.int(300, 100)] <- NA
data_test_na$WAIST[sample.int(300, 100)] <- NA
data_test_na$GLYCO[sample.int(300, 100)] <- NA

print(data_test_na)

#> # A tibble: 300 x 8
#>       ID GENDER   AGE HEIGHT WEIGHT   FAT WAIST GLYCO
#>    <int>  <int> <int>  <dbl>  <dbl> <dbl> <dbl> <dbl>
#>  1 93731      0    NA    NA    NA    31.3 102.    4.9
#>  2 93758     NA    55   157.   75.8  NA   102.    6.5
#>  3 93761     NA    44   166.   80.2  31.8  NA     5.8
#>  4 93811      0    NA   164.   79.6  NA    90.9   5.3
#>  5 93814      1    41   169.   NA    39.1  90.7   4.6
#>  6 93824      1    52   159.   72.2  41.1  87.4   5.6
#>  7 93837      1    NA   167.  109.   48.3  NA    NA  
#>  8 93841      1    48   172.   96.5  NA    NA    NA  
#>  9 93849      1    40   165.   61.4  26    84.4   5.2
#> 10 93926     NA    31    NA    NA    36.9 130.    5.3
#> # ... with 290 more rows
```
…
<img src="man/figures/ellipses.png"/>

Now that the Bayesian network has been learned, it can be used to
perform inference on the test set, which allows to fill in the missing
values:

``` r
data_infer <- inference(res_learn$gmgm, data_test_na)

print(data_infer)

#> # A tibble: 300 x 7
#>      AGE   FAT  GENDER GLYCO HEIGHT WAIST WEIGHT
#>    <dbl> <dbl>   <dbl> <dbl>  <dbl> <dbl>  <dbl>
#>  1  31.7  31.3 0        4.9    173. 102.    88.4
#>  2  55    40.9 0.930    6.5    157. 102.    75.8
#>  3  44    31.8 0.145    5.8    166. 101.    80.2
#>  4  32.4  27.4 0        5.3    164.  90.9   79.6
#>  5  41.   39.1 1        4.6    169.  90.7   74.4
#>  6  52.   41.1 1        5.6    159.  87.4   72.2
#>  7  40.3  48.3 1        5.93   167. 119.   109. 
#>  8  48    42.1 1        6.08   172. 111.    96.5
#>  9  40    26.  1        5.2    165.  84.4   61.4
#> 10  31.   36.9 0.00688  5.3    174. 130.   128. 
#> # ... with 290 more rows
```
…
